{
    "Version": "2012-10-17",
    "Statement": [
        {
            "Sid": "VisualEditor0",
            "Effect": "Allow",
            "Action": [
                "lambda:InvokeAsync",
                "lambda:InvokeFunction"
            ],
            "Resource": [
                "*"
            ]
        },
        {
            "Sid": "VisualEditor1",
            "Effect": "Allow",
            "Action": [
                "logs:CreateLogStream",
                "lambda:*",
                "logs:PutLogEvents"
            ],
            "Resource": [
                "callUbidots_arn",
                "arn:aws:logs:*:*:*"
            ]
        },
        {
            "Sid": "VisualEditor2",
            "Effect": "Allow",
            "Action": "logs:CreateLogGroup",
            "Resource": "arn:aws:logs:*:*:*"
        },
        {
            "Sid": "VisualEditor3",
            "Effect": "Allow",
            "Action": "dynamodb:*",
            "Resource": "dynamoddb_arn"
        }
    ]
}